<svg width="20" height="20" viewBox="0 0 20 20" fill="none" xmlns="http://www.w3.org/2000/svg">
<path fill-rule="evenodd" clip-rule="evenodd" d="M9.99996 18.3332C14.6023 18.3332 18.3333 14.6022 18.3333 9.99984C18.3333 5.39746 14.6023 1.6665 9.99996 1.6665C5.39759 1.6665 1.66663 5.39746 1.66663 9.99984C1.66663 14.6022 5.39759 18.3332 9.99996 18.3332ZM8.72251 7.07191C8.62646 6.30353 9.2256 5.62484 9.99996 5.62484C10.7743 5.62484 11.3735 6.30353 11.2774 7.07191L10.8196 10.7346C10.7679 11.148 10.4165 11.4582 9.99996 11.4582C9.5834 11.4582 9.23202 11.148 9.18035 10.7346L8.72251 7.07191ZM10.7291 13.6457C10.7291 14.0484 10.4027 14.3748 9.99996 14.3748C9.59725 14.3748 9.27079 14.0484 9.27079 13.6457C9.27079 13.243 9.59725 12.9165 9.99996 12.9165C10.4027 12.9165 10.7291 13.243 10.7291 13.6457Z" fill="#F2994A"/>
</svg>
