<svg width="20" height="20" viewBox="0 0 20 20" fill="none" xmlns="http://www.w3.org/2000/svg">
<path d="M10.0001 1.6665C14.6025 1.6665 18.3334 5.39746 18.3334 9.99984C18.3334 14.6022 14.6025 18.3332 10.0001 18.3332C8.6515 18.3332 7.34827 18.012 6.17746 17.4065L2.98928 18.296C2.43518 18.4507 1.86057 18.1269 1.70584 17.5728C1.65463 17.3895 1.65466 17.1956 1.70587 17.0124L2.59559 13.8267C1.98872 12.6548 1.66675 11.3501 1.66675 9.99984C1.66675 5.39746 5.39771 1.6665 10.0001 1.6665ZM10.0001 2.9165C6.08806 2.9165 2.91675 6.08782 2.91675 9.99984C2.91675 11.2245 3.22739 12.4027 3.81094 13.4477L3.93648 13.6725L3.00921 16.9927L6.33138 16.0659L6.55599 16.1911C7.60013 16.7733 8.7769 17.0832 10.0001 17.0832C13.9121 17.0832 17.0834 13.9119 17.0834 9.99984C17.0834 6.08782 13.9121 2.9165 10.0001 2.9165ZM10.0001 12.9165C10.4603 12.9165 10.8334 13.2896 10.8334 13.7498C10.8334 14.2101 10.4603 14.5832 10.0001 14.5832C9.53984 14.5832 9.16675 14.2101 9.16675 13.7498C9.16675 13.2896 9.53984 12.9165 10.0001 12.9165ZM10.0001 5.62484C11.2657 5.62484 12.2917 6.65085 12.2917 7.9165C12.2917 8.7588 12.0438 9.2282 11.4158 9.88199L11.2754 10.0251C10.7571 10.5434 10.6251 10.7634 10.6251 11.2498C10.6251 11.595 10.3453 11.8748 10.0001 11.8748C9.6549 11.8748 9.37508 11.595 9.37508 11.2498C9.37508 10.4075 9.62303 9.93814 10.251 9.28435L10.3915 9.14123C10.9097 8.62298 11.0417 8.40294 11.0417 7.9165C11.0417 7.34121 10.5754 6.87484 10.0001 6.87484C9.46074 6.87484 9.01714 7.28473 8.96379 7.81L8.95842 7.9165C8.95842 8.26168 8.67859 8.5415 8.33342 8.5415C7.98824 8.5415 7.70842 8.26168 7.70842 7.9165C7.70842 6.65085 8.73443 5.62484 10.0001 5.62484Z" fill="#A1A6AC"/>
</svg>
