<svg width="20" height="20" viewBox="0 0 20 20" fill="none" xmlns="http://www.w3.org/2000/svg">
<path d="M6.83894 3.33325C7.22274 3.33325 7.59592 3.45099 7.90896 3.66854L8.03929 3.76784L10.0182 5.41659H16.4582C17.4054 5.41659 18.1887 6.11906 18.3153 7.03149L18.3288 7.16321L18.3332 7.29159L18.3332 14.7916C18.3332 15.784 17.5622 16.5963 16.5865 16.6623L16.4582 16.6666H3.5415C2.54912 16.6666 1.7368 15.8956 1.67083 14.92L1.6665 14.7916L1.6665 5.20825C1.6665 4.21587 2.43747 3.40355 3.41313 3.33758L3.5415 3.33325L6.83894 3.33325ZM8.03929 8.31533C7.74444 8.56104 7.38239 8.70949 7.00263 8.74276L6.83894 8.74992L2.9165 8.74908L2.9165 14.7916C2.9165 15.108 3.15163 15.3695 3.4567 15.4109L3.5415 15.4166L16.4582 15.4166C16.7746 15.4166 17.0361 15.1815 17.0775 14.8764L17.0832 14.7916V7.29159C17.0832 6.97517 16.848 6.71368 16.543 6.67229L16.4582 6.66659H10.0173L8.03929 8.31533ZM6.83894 4.58325L3.5415 4.58325C3.22509 4.58325 2.96359 4.81838 2.92221 5.12344L2.9165 5.20825L2.9165 7.49908L6.83894 7.49992C6.95591 7.49992 7.06992 7.46711 7.16835 7.40606L7.23906 7.35506L8.81484 6.04075L7.23906 4.72811C7.1492 4.65323 7.04061 4.60545 6.92592 4.58933L6.83894 4.58325Z" fill="#5A5D63"/>
</svg>
