<svg width="20" height="20" viewBox="0 0 20 20" fill="none" xmlns="http://www.w3.org/2000/svg">
<path d="M14.5833 10C17.1146 10 19.1667 12.052 19.1667 14.5833C19.1667 17.1146 17.1146 19.1667 14.5833 19.1667C12.052 19.1667 10 17.1146 10 14.5833C10 12.052 12.052 10 14.5833 10ZM14.7917 2.5C16.2874 2.5 17.5 3.71256 17.5 5.20833L17.501 10.0188C17.1148 9.77146 16.6952 9.57176 16.2504 9.42803L16.25 7.08333L3.75 7.08333L3.75 14.7917C3.75 15.5971 4.40292 16.25 5.20833 16.25L9.42803 16.2504C9.57176 16.6952 9.77146 17.1148 10.0188 17.501L5.20833 17.5C3.71256 17.5 2.5 16.2874 2.5 14.7917L2.5 5.20833C2.5 3.71256 3.71256 2.5 5.20833 2.5L14.7917 2.5ZM14.5833 11.6667L14.5084 11.6734C14.3384 11.7042 14.2043 11.8384 14.1734 12.0084L14.1667 12.0833V14.1667H12.0833L12.0084 14.1734C11.8384 14.2043 11.7042 14.3384 11.6734 14.5084L11.6667 14.5833L11.6734 14.6582C11.7042 14.8283 11.8384 14.9624 12.0084 14.9933L12.0833 15H14.1667V17.0833L14.1734 17.1582C14.2043 17.3283 14.3384 17.4624 14.5084 17.4933L14.5833 17.5L14.6582 17.4933C14.8283 17.4624 14.9624 17.3283 14.9933 17.1582L15 17.0833V15H17.0833L17.1582 14.9933C17.3283 14.9624 17.4624 14.8283 17.4933 14.6582L17.5 14.5833L17.4933 14.5084C17.4624 14.3384 17.3283 14.2043 17.1582 14.1734L17.0833 14.1667H15V12.0833L14.9933 12.0084C14.9624 11.8384 14.8283 11.7042 14.6582 11.6734L14.5833 11.6667ZM14.7917 3.75L5.20833 3.75C4.40292 3.75 3.75 4.40292 3.75 5.20833V5.83333L16.25 5.83333V5.20833C16.25 4.40292 15.5971 3.75 14.7917 3.75Z" fill="#5A5D63"/>
</svg>
