<svg width="20" height="20" viewBox="0 0 20 20" fill="none" xmlns="http://www.w3.org/2000/svg">
<path d="M12.0832 8.75782L12.0832 12.7083C12.0832 13.0534 12.363 13.3333 12.7082 13.3333C13.0533 13.3333 13.3332 13.0534 13.3332 12.7083L13.3332 7.29158C13.3332 6.94641 13.0533 6.66658 12.7082 6.66658L7.2915 6.66658C6.94633 6.66658 6.6665 6.94641 6.6665 7.29158C6.6665 7.63676 6.94633 7.91658 7.2915 7.91658L11.157 7.91658L6.84736 12.2684C6.60447 12.5137 6.6064 12.9094 6.85166 13.1523C7.09693 13.3952 7.49265 13.3933 7.73553 13.148L12.0832 8.75782Z" fill="#5A5D63"/>
<path fill-rule="evenodd" clip-rule="evenodd" d="M9.99984 18.3333C5.39746 18.3333 1.6665 14.6023 1.6665 9.99992C1.6665 5.39755 5.39746 1.66658 9.99984 1.66658C14.6022 1.66658 18.3332 5.39755 18.3332 9.99992C18.3332 14.6023 14.6022 18.3333 9.99984 18.3333ZM2.9165 9.99992C2.9165 13.9119 6.08782 17.0833 9.99984 17.0833C13.9119 17.0833 17.0832 13.9119 17.0832 9.99992C17.0832 6.0879 13.9119 2.91658 9.99984 2.91658C6.08782 2.91658 2.9165 6.0879 2.9165 9.99992Z" fill="#5A5D63"/>
</svg>
